[{"nome":"Venda de ingressos CCS", "local":"CCS", "dia":"3/10","start":"11:30h", "end":"13:45h"},
  {"nome":"Venda de ingressos RU", "local":"RU", "dia":"3/10","start":"11:30h", "end":"13:45h"},
  {"nome":"Venda de ingressos CSE", "local":"CSE", "dia":"3/10","start":"17:30h", "end":"19:00h"},
  {"nome":"Venda de ingressos CCE", "local":"CCE", "dia":"3/10","start":"17:30h", "end":"19:00h"},

  {"nome":"Venda de ingressos CEART", "local":"CEART", "dia":"4/10","start":"11:30h", "end":"13:45h"},
  {"nome":"Linguicinha RU", "local":"RU", "dia":"4/10","start":"11:30h", "end":"13:45h"},
  {"nome":"Venda de ingressos CSE", "local":"CSE", "dia":"4/10","start":"17:30h", "end":"19:00h"},
  {"nome":"Venda de ingressos CCE", "local":"CCE", "dia":"4/10","start":"17:30h", "end":"19:00h"},

  {"nome":"Venda de ingressos CCS", "local":"CCS", "dia":"5/10","start":"11:30h", "end":"13:45h"},
  {"nome":"Venda de ingressos CCE", "local":"CCE", "dia":"5/10","start":"11:30h", "end":"12:30h"},
  {"nome":"Venda de ingressos Feirinha", "local":"Feirinha da UFSC", "dia":"5/10","start":"16:00h", "end":"18:00h"},


  {"nome":"Venda de ingressos CCA", "local":"CCA", "dia":"6/10","start":"11:30h", "end":"13:45h"},
  {"nome":"Venda de ingressos RU", "local":"RU", "dia":"6/10","start":"11:30h", "end":"13:45h"},
  {"nome":"Venda de ingressos CSE", "local":"CSE", "dia":"6/10","start":"17:30h", "end":"19:00h"},
  {"nome":"Venda de ingressos CCE", "local":"CCE", "dia":"6/10","start":"17:30h", "end":"19:00h"},


  {"nome":"Linguicinha CCS", "local":"CCS", "dia":"7/10","start":"11:30h", "end":"18:00h"}

]