[
  {
    "nome": "Rong Jiarui",
    "ddd": 48,
    "celular": "9601-3123",
    "email": "rongg@hotmail.com",
    "universidade": "UFSC",
    "curso": "AUTOMAÇÃO",
    "img_url": "appVendedores__0002s_0000_Rong-Jiarui.png",
    "fb_link": "https://www.facebook.com/rongjiarui?fref=ts"
  },
  {
    "nome": "Débora Tomazi",
    "ddd": 48,
    "celular": "9612-9480",
    "email": "de.tomazi@hotmail.com",
    "universidade": "UFSC",
    "curso": "BIOLOGIA",
    "img_url": "appVendedores__0002s_0005_Debora-Tomazi.png",
    "fb_link": "https://www.facebook.com/debora.tomazipereira?fref=ts"
  },
  {
    "nome": "Natália Busnello",
    "ddd": 54,
    "celular": "9908-0672",
    "email": "Natalia.busnello@gmail.com",
    "universidade": "UNISUL - PEDRA BRANCA",
    "curso": "PRODUÇÂO",
    "img_url": "appVendedores__0002s_0001_Natalia-Busnello.png",
    "fb_link": "https://www.facebook.com/natalia.busnello?fref=ts"
  },
  {
    "nome": "Marina Strossi",
    "ddd": 48,
    "celular": "9958-1187",
    "email": "Marinastrossi@hotmail.com",
    "universidade": "UFSC",
    "curso": "SANITÁRIA",
    "img_url": "appVendedores__0002s_0002_Marina-Strossi.png",
    "fb_link": "https://www.facebook.com/marina.strossi?fref=ts"
  },
  {
    "nome": "Alekão",
    "ddd": 48,
    "celular": "9954-2576",
    "email": "alex.ali.ali@gmail.com",
    "universidade": "UFSC",
    "curso": "PRODUÇÂO",
    "img_url": "appVendedores__0002s_0006_Alekao.png",
    "fb_link": "https://www.facebook.com/alex.abouali?fref=ts"
  },
  {
    "nome": "Guilherme Winck",
    "ddd": 48,
    "celular": "9178-5983",
    "email": "guioda@gmail.com",
    "universidade": "UFSC",
    "curso": "AUTOMAÇÃO",
    "img_url": "appVendedores__0002s_0004_Guilherme-Winck.png",
    "fb_link": "https://www.facebook.com/guilherme.winck?fref=ts"
  },
  {
    "nome": "Gustavo Kremer",
    "ddd": 48,
    "celular": "9919-1589",
    "email": "gckremer94@gmail.com",
    "universidade": "UFSC",
    "curso": "AUTOMAÇÃO",
    "img_url": "appVendedores__0002s_0003_Gustavo-Kremer.png",
    "fb_link": "https://www.facebook.com/gustavo.kremer.1?fref=ts"
  },
  {
    "nome": "Vinícius (Gaúcho)",
    "ddd": 48,
    "celular": "9111-1650",
    "email": "viniciusrd4@gmail.com",
    "universidade": "UFSC",
    "curso": "AUTOMAÇÃO",
    "img_url": "appVendedores__0006s_0004_gausho.png",
    "fb_link": "https://www.facebook.com/vinicius.rdagnol?fref=ts"
  },
  {
    "nome": "Mayara Modzinski",
    "ddd": 48,
    "celular": "9625-8844",
    "email": "mmodzinski@gmail.com",
    "universidade": "UFSC",
    "curso": "ADMINISTRAÇÃO",
    "img_url": "appVendedores__0006s_0001_mayara-do-balen.png",
    "fb_link": "https://www.facebook.com/mmodzinski?fref=ts"
  },
  {
    "nome": "Letícia Schadeck",
    "ddd": 47,
    "celular": "9697-2973",
    "email": "lee.schadeck@gmail.com",
    "universidade": "UFSC",
    "curso": "PSICOLOGIA",
    "img_url": "appVendedores__0006s_0002_leticia.png",
    "fb_link": "https://www.facebook.com/leticia.schadeck.5?fref=ts"
  },
  {
    "nome": "Agnes Day Alves",
    "ddd": 48,
    "celular": "9609-0014",
    "email": "agnes.day.alves@gmail.com",
    "universidade": "UFSC",
    "curso": "FARMÁCIA",
    "img_url": "appVendedores__0006s_0006_agnes.png",
    "fb_link": "https://www.facebook.com/agnes.day.9?fref=ts"
  },
  {
    "nome": "Gustavo Bordignon",
    "ddd": 48,
    "celular": "9830-3330",
    "email": "gustavo.dbordignon@gmail.com",
    "universidade": "UFSC",
    "curso": "AUTOMAÇÃO",
    "img_url": "appVendedores__0006s_0005_frango.png",
    "fb_link": "https://www.facebook.com/gustavo.dbordignon?fref=ts"
  },
  {
    "nome": "Laisa Santos",
    "ddd": 48,
    "celular": "9911-0556",
    "email": "laisasds@hotmail.com",
    "universidade": "UFSC",
    "curso": "DIREITO",
    "img_url": "appVendedores__0006s_0003_laisa.png",
    "fb_link": "https://www.facebook.com/Laisasantos?fref=ts"
  },
  {
    "nome": "Maria Meyer",
    "ddd": 62,
    "celular": "8528-9000",
    "email": "mlbmeyer@hotmail.com",
    "universidade": "UFSC",
    "curso": "AUTOMAÇÃO",
    "img_url": "appVendedores__0006s_0000_sunshine.png",
    "fb_link": "https://www.facebook.com/marialaura.b.meyer?fref=ts"
  },
  {
    "nome": "Mariana Becker",
    "ddd": 48,
    "celular": "9618-2585",
    "email": "marilondero@gmail.com",
    "universidade": "UFSC",
    "curso": "BIOLOGIA",
    "img_url": "appVendedores__0003s_0003_Mariana-Londero-Becker.png",
    "fb_link": "https://www.facebook.com/maaribecker"
  },
  {
    "nome": "Guilherme Souza",
    "ddd": 47,
    "celular": "9972-8558",
    "email": "guicornelli.s@gmail.com",
    "universidade": "UFSC",
    "curso": "AUTOMAÇÃO",
    "img_url": "appVendedores__0003s_0004_Guilherme-Cornelli.png",
    "fb_link": "https://www.facebook.com/guilherme.cornelli.1"
  },
  {
    "nome": "Nicholas Drabowski",
    "ddd": 48,
    "celular": "9682-8912",
    "email": "nicholas.drabowski@gmail.com",
    "universidade": "UFSC",
    "curso": "AUTOMAÇÃO",
    "img_url": "appVendedores__0003s_0000_Nicholas-Drabowski.png",
    "fb_link": "https://www.facebook.com/nicholas.drabowski"
  },
  {
    "nome": "Andre Silva",
    "ddd": 48,
    "celular": "9684-1422",
    "email": "andrevrochasilva@gmail.com",
    "universidade": "UFSC",
    "curso": "AUTOMAÇÃO",
    "img_url": "appVendedores__0003s_0005_Andre-Vinicius-Rocha-Silva.png",
    "fb_link": "https://www.facebook.com/andreVRS"
  },
  {
    "nome": "Mirella da Silva",
    "ddd": 48,
    "celular": "9610-1836",
    "email": "mirellam41@gmail.com",
    "universidade": "UNISUL",
    "curso": "ARQUITETURA E URBANISMO",
    "img_url": "appVendedores__0003s_0001_Mirella-Maia.png",
    "fb_link": "https://www.facebook.com/mirella.maia.9659"
  },
  {
    "nome": "Maximo Pacheco",
    "ddd": 48,
    "celular": "9657-8750",
    "email": "maximo.s.pacheco@gmail.com",
    "universidade": "UFSC",
    "curso": "AUTOMAÇÃO",
    "img_url": "appVendedores__0003s_0002_Maximo-Pacheco.png",
    "fb_link": "https://www.facebook.com/max.theman.10"
  },
  {
    "nome": "Alex Lopes",
    "ddd": 48,
    "celular": "9177-0877",
    "email": "alexlopes1202@gmail.com",
    "universidade": "UFSC",
    "curso": "AUTOMAÇÃO",
    "img_url": "appVendedores__0003s_0006_Alex-Lopes.png",
    "fb_link": "https://www.facebook.com/alex.lopes.37853"
  },
  {
    "nome": "Emilio Junior",
    "ddd": 48,
    "celular": "9652-6350",
    "email": "emilinho_pca@hotmail.com",
    "universidade": "UFSC",
    "curso": "AUTOMAÇÃO",
    "img_url": "appVendedores__0005s_0005_Emilio.png",
    "fb_link": "https://www.facebook.com/EmilioBJr"
  },
  {
    "nome": "Ricardo Noronha",
    "ddd": 48,
    "celular": "9911-8905",
    "email": "ricardonoronha1@hotmail.com",
    "universidade": "UFSC",
    "curso": "NUTRIÇÃO",
    "img_url": "appVendedores__0005s_0002_Noronha.png",
    "fb_link": "https://www.facebook.com/ricknoronha"
  },
  {
    "nome": "Alex Pereira",
    "ddd": 48,
    "celular": "8856-0906",
    "email": "alexnatela@hotmail.com",
    "universidade": "IFSC",
    "curso": "MECATRÔNICA",
    "img_url": "appVendedores__0005s_0006_Alex.png",
    "fb_link": "https://www.facebook.com/alexnatela"
  },
  {
    "nome": "Samantha Tavares",
    "ddd": 48,
    "celular": "9916-8856",
    "email": "samantha.manuela@hotmail.com",
    "universidade": "UFSC",
    "curso": "FARMÁCIA",
    "img_url": "appVendedores__0005s_0001_Samantha.png",
    "fb_link": "https://www.facebook.com/samantha.m.ferri"
  },
  {
    "nome": "Henrique Hartwig",
    "ddd": 48,
    "celular": "9647-7147",
    "email": "ike2805@hotmail.com",
    "universidade": "UFSC",
    "curso": "AUTOMAÇÃO",
    "img_url": "appVendedores__0005s_0004_Henrique.png",
    "fb_link": "https://www.facebook.com/henrique.hartwig"
  },
  {
    "nome": "Luiz Duarte",
    "ddd": 48,
    "celular": "9800-6799",
    "email": "luizfduarte@outlook.com ",
    "universidade": "UFSC",
    "curso": "AUTOMAÇÃO",
    "img_url": "appVendedores__0005s_0003_Luiz-Fillipe.png",
    "fb_link": "https://www.facebook.com/luizfduartee"
  },
  {
    "nome": "Otávio Trentin",
    "ddd": 48,
    "celular": "9104-6261",
    "email": "otavio_trentin@hotmail.com",
    "universidade": "UFSC",
    "curso": "AUTOMAÇÃO",
    "img_url": "appVendedores__0005s_0000_Trentin.png",
    "fb_link": "https://www.facebook.com/OtavioTrentin"
  },
  {
    "nome": "Matheus Ambrosi",
    "ddd": 65,
    "celular": "9987-7830",
    "email": "matheusalbertoambrosi@gmail.com",
    "universidade": "UFSC",
    "curso": "AUTOMAÇÃO",
    "img_url": "appVendedores__0001s_0005_Ambrosi.png",
    "fb_link": "https://www.facebook.com/matheus.ambrosi"
  },
  {
    "nome": "Marco Geremias",
    "ddd": 48,
    "celular": "9934-5007",
    "email": "marco.geremias@gmail.com",
    "universidade": "UFSC",
    "curso": "AUTOMAÇÃO",
    "img_url": "appVendedores__0001s_0001_Marco.png",
    "fb_link": "https://www.facebook.com/MarcoGeremias"
  },
  {
    "nome": "Matheus Domingos",
    "ddd": 48,
    "celular": "9624-8667",
    "email": "matheus_matuta@hotmail.com",
    "universidade": "UFSC",
    "curso": "AUTOMAÇÃO",
    "img_url": "appVendedores__0001s_0000_Matheus-Dom.png",
    "fb_link": "https://www.facebook.com/matheusdomingossilva"
  },
  {
    "nome": "Fernando Redondo",
    "ddd": 11,
    "celular": "968417168",
    "email": "ferteures@hotmail.com",
    "universidade": "UFSC",
    "curso": "AUTOMAÇÃO",
    "img_url": "appVendedores__0001s_0006_Redondo.png",
    "fb_link": "https://www.facebook.com/fernando.teures"
  },
  {
    "nome": "Paulo Curado",
    "ddd": 48,
    "celular": "9922-1924",
    "email": "phcurado@gmail.com",
    "universidade": "UFSC",
    "curso": "AUTOMAÇÃO",
    "img_url": "appVendedores__0001s_0004_curado.png",
    "fb_link": "https://www.facebook.com/paulo.curado.5"
  },
  {
    "nome": "Jorge Junkes",
    "ddd": 48,
    "celular": "9658-7162",
    "email": "jorgejunkes@hotmail.com",
    "universidade": "UDESC",
    "curso": "ED. FÍSICA",
    "img_url": "appVendedores__0001s_0002_Jorge-Junk.png",
    "fb_link": "https://www.facebook.com/jorge.junkes"
  },
  {
    "nome": "Jessica de Oliveira",
    "ddd": 48,
    "celular": "8829-6867",
    "email": "jessicagardin@outlook.com",
    "universidade": "UFSC",
    "curso": "QUÍMICA",
    "img_url": "appVendedores__0001s_0003_Gardini.png",
    "fb_link": "https://www.facebook.com/jessica.gardini"
  },
  {
    "nome": "Augusto Jose Toso",
    "ddd": 45,
    "celular": "8414-9070",
    "email": "augusto.J.Toso@gmail.com",
    "universidade": "UFSC",
    "curso": "AUTOMAÇÃO",
    "img_url": "appVendedores__0000s_0006_Augusto-Toso.png",
    "fb_link": "https://www.facebook.com/augustotoso?fref=ts"
  },
  {
    "nome": "Gabriela Begnini",
    "ddd": 48,
    "celular": "9836-1846",
    "email": "gabegnini@gmail.com",
    "universidade": "UFSC",
    "curso": "ENG. QUÍMICA",
    "img_url": "appVendedores__0000s_0004_Gabriela-Begnini.png",
    "fb_link": "https://www.facebook.com/gabibegnini?fref=ts"
  },
  {
    "nome": "Pedro (nego)",
    "ddd": 48,
    "celular": "9692-5889",
    "email": "negosousa@icloud.com",
    "universidade": "UDESC",
    "curso": "ADM EMPRESARIAL",
    "img_url": "appVendedores__0000s_0001_Pedro-Ivo-Souza-Garcia.png",
    "fb_link": "https://www.facebook.com/negosousa?fref=ts"
  },
  {
    "nome": "Roberta Guerreiro",
    "ddd": 48,
    "celular": "9959-3203",
    "email": "betaguerreiro5@gmail.com",
    "universidade": "UFSC",
    "curso": "MEDICINA",
    "img_url": "appVendedores__0000s_0000_Roberta-Guerreiro.png",
    "fb_link": "https://www.facebook.com/roberta.guerreiro.315?fref=ts"
  },
  {
    "nome": "Luísa Mainardi",
    "ddd": 48,
    "celular": "9995-2997",
    "email": "luisacmainardi@gmail.com",
    "universidade": "UFSC",
    "curso": "RELAÇOES INTERNACIONAIS",
    "img_url": "appVendedores__0000s_0003_Luisa-Calheiro-Mainarde.png",
    "fb_link": "https://www.facebook.com/luisa.mainardi?fref=ts"
  },
  {
    "nome": "Cintia Cuco",
    "ddd": 48,
    "celular": "9921-0451",
    "email": "cintia.cuco@gmail.com",
    "universidade": "UFSC",
    "curso": "CIÊNCIAS ECONÔMICAS",
    "img_url": "appVendedores__0000s_0005_Cintia-Cuky.png",
    "fb_link": "https://www.facebook.com/cintia.cuky?fref=ts"
  },
  {
    "nome": "Matheus Passos Vaz",
    "ddd": 48,
    "celular": "8469-4120",
    "email": "matheus.passos.v@gmail.com",
    "universidade": "UFSC",
    "curso": "AUTOMAÇÃO",
    "img_url": "appVendedores__0000s_0002_Matheus-Passos-Vaz.png",
    "fb_link": "https://www.facebook.com/matheus.p.vaz?fref=ts"
  },
  {
    "nome": "Pedro Casali",
    "ddd": 48,
    "celular": "9942-6325",
    "email": "pedrocasali.g@gmail.com",
    "universidade": "UFSC",
    "curso": "AUTOMAÇÃO",
    "img_url": "appVendedores__0004s_0003_PedroCasali.png",
    "fb_link": "https://www.facebook.com/pedro.casali.7"
  },
  {
    "nome": "Thiago Andrade",
    "ddd": 48,
    "celular": "9918-3297",
    "email": "jappa_toga@hotmail.com",
    "universidade": "UFSC",
    "curso": "ED. FÍSICA",
    "img_url": "appVendedores__0004s_0001_ThiagoAndrade.png",
    "fb_link": "https://www.facebook.com/thiago.andrade.984"
  },
  {
    "nome": "Leonardo Quaini",
    "ddd": 66,
    "celular": "9999-2685",
    "email": "leonardo_q95@hotmail.com",
    "universidade": "UFSC",
    "curso": "AUTOMAÇÃO",
    "img_url": "appVendedores__0004s_0004_LeonardoQuaini.png",
    "fb_link": "https://www.facebook.com/leonardo.quaini"
  },
  {
    "nome": "Yasmin Melo",
    "ddd": 48,
    "celular": "8818-5596",
    "email": "yasmin.yom@gmail.com",
    "universidade": "UFSC",
    "curso": "AUTOMAÇÃO",
    "img_url": "appVendedores__0004s_0000_YasminMelo.png",
    "fb_link": "https://www.facebook.com/yasmin.melo.547"
  },
  {
    "nome": "Fabre",
    "ddd": 48,
    "celular": "9691-0565",
    "email": "fabreluizjr@gmail.com",
    "universidade": "UFSC",
    "curso": "MECÂNICA",
    "img_url": "appVendedores__0004s_0005_Fabre.png",
    "fb_link": "https://www.facebook.com/fabre.junior"
  },
  {
    "nome": "Daniele Mattos",
    "ddd": 48,
    "celular": "9689-0492",
    "email": "danikm95@gmail.com",
    "universidade": "UFSC",
    "curso": "SISTEMAS DE INFORMAÇÃO",
    "img_url": "appVendedores__0004s_0006_DanieleMattos.png",
    "fb_link": "https://www.facebook.com/daniele.kaufmannmattos"
  },
  {
    "nome": "Luis Antonio Bueno",
    "ddd": 48,
    "celular": "9699-7730",
    "email": "hplabueno@hotmail.com",
    "universidade": "UFSC",
    "curso": "AUTOMAÇÃO",
    "img_url": "appVendedores__0004s_0007_LuisBueno.png",
    "fb_link": "https://www.facebook.com/tw1sss"
  },
  {
    "nome": "Samir dos Santos Jr",
    "ddd": 48,
    "celular": "9138-3358",
    "email": "rimas.alves@hotmail.com",
    "universidade": "UFSC",
    "curso": "DIREITO",
    "img_url": "appVendedores__0004s_0002_SamirAlves.png",
    "fb_link": "https://www.facebook.com/samir.alves.370"
  }
]