[
    {"name": "DJ Juninho",  "time": "14:00 às 16:00", "star": "enable",  "picture": "juniorramos.png"},
    {"name": "Teto Fernandes",     "time": "16:00 às 17:30", "star": "disable", "picture": "teto.png"},
    {"name": "DJ Henrique", "time": "17:30 às 18:00", "star": "enable",  "picture": "dagostini.png"},
    {"name": "Diana Dias",  "time": "18:00 às 19:30", "star": "disable", "picture": "dianadias.png"},
    {"name": "DJ Guima",    "time": "19:30 às 21:00", "star": "enable", "picture":"guima.png"},
    {"name": "Elton e Everton",   "time": "21:00 às 23:00", "star": "disable", "picture": "eltoneeverton.png"},
    {"name": "DJ Juninho",  "time": "23:00 às 23:30", "star": "enable",  "picture": "juniorramos.png"}

]
