[{"image_url":"img/anuncios/img1.png", "link":"link1"},
{"image_url":"img/anuncios/img2", "link":"link2"},
{"image_url":"img/anuncios/img3", "link":"link3"},
{"image_url":"img/anuncios/img4", "link":"link4"}]